pset2
…
Linear models

25 We are going fit a linear model to account for the trend in death rates to obtain an more appropriate expected death rate for each agegroup and sex. Because we are fitting a linear model, it is preferable to have normally distributed data. We want the number of deaths per week to be larger than 10 for each group. Compute the average number of deaths per week by agegroup and sex for 2016. Based on these data, what agegroups do you recommend we combine?

Combine 0-44, 45-54,55-59, 60-64, 65-69, 70-74,75-79, 80-84, 85-Inf.

avg_deaths_2016 <- weekly_counts %>%
  filter(year == 2016) %>%
  group_by(agegroup, sex) %>%
  summarize(average_deaths_per_week = mean(outcome, na.rm = TRUE),
            .groups = 'drop')
avg_deaths_2016

# A tibble: 36 × 3
   agegroup sex    average_deaths_per_week
   <fct>    <chr>                    <dbl>
 1 0-4      female                    2.38
 2 0-4      male                      2.52
 3 5-9      female                    0.3 
 4 5-9      male                      0.18
 5 10-14    female                    0.12
 6 10-14    male                      0.24
 7 15-19    female                    0.3 
 8 15-19    male                      1.6 
 9 20-24    female                    0.58
10 20-24    male                      4.54
# ℹ 26 more rows
…
